[main] INFO  Testcase: ./Demo/testcases/testcase_15.tst
[main] INFO  Log file: ./Demo/logs/testcase_15.log
[main] INFO  GUI state file: ./Demo/states/testcase_15.sta
[main] INFO  ------ BEGIN TESTCASE -----
[main] INFO  Connecting to application
[main] INFO  Application is connected.
[main] INFO  Test monitor: edu.umd.cs.guitar.replayer.monitor.StateMonitor is initialized
[main] INFO  Test monitor: edu.umd.cs.guitar.replayer.monitor.TimeMonitor is initialized
[main] INFO  Testcase size 2 steps
[main] INFO  ------- BEGIN STEP --------
[main] INFO  Executing Step EventID = e1139378832
[main] ERROR Step Event ID = e1139378832. Not found in EFG.
[main] INFO  -------- END STEP ---------
[main] INFO  ------- END TESTCASE ------
[main] ERROR GUITAR Exception thrown
edu.umd.cs.guitar.exception.ReplayerStateException
	at edu.umd.cs.guitar.replayer.Replayer.executeStep(Replayer.java:318)
	at edu.umd.cs.guitar.replayer.Replayer.execute(Replayer.java:240)
	at edu.umd.cs.guitar.replayer.ADRReplayer.execute(ADRReplayer.java:128)
	at edu.umd.cs.guitar.replayer.ADRReplayerMain.main(ADRReplayerMain.java:47)
[main] INFO  Time Elapsed: 00 : 00 : 07: 318
[main] INFO  Testcase: ./Demo/testcases/testcase_15.tst
[main] INFO  Log file: ./Demo/logs/testcase_15.log
[main] INFO  GUI state file: ./Demo/states/testcase_15.sta
